[
    {
        "name": "Factory",
        "description": "A small, fast-paced CQC map inside of a multi-story industrial factory, complete with tunnels and overhead walkways.",
        "duration": 20,
        "min_players": 4,
        "max_players": 6,
        "preview_url": "https://gamepedia.cursecdn.com/escapefromtarkov_gamepedia/1/1a/Factory-Day_Banner.png?version=a26b15223807a5d19f66ecf6ccb826aa",
        "map_url": "",

        "extractions": [
            {
                "name": "Camera Bunker Door (Underground)",
                "faction": "SCAV",
                "image_url": "",
                "required": ""
            }
        ],

        "keys": [
            {
                "name": "Factory exit key",
                "quest": true,
                "loot": true
            }
        ]
    }
]